{
	"name":   "EF Core Example",
	"key":    "thp_ef_core",
	"repo":   "https://gitlab.com/the-humble-programmer-templates/ef-core-example.git",
	"email":  "kirinnee97@gmail.com",
	"readme": "README.MD"
}
